aes/tboxdp/aes_encrypt_core_tb.log
VCD info: dumpfile aes_encrypt_core_tb.vcd opened for output.
VCD warning: $dumpvars: Package ($unit) is not dumpable with VCD.
3925841d02dc09fbdc118597196a0b32
WARNING: aes_encrypt_core_tb.sv:40: $readmemh(plain_text.txt): Not enough words in the file for the requested range [0:100].
WARNING: aes_encrypt_core_tb.sv:41: $readmemh(key.txt): Not enough words in the file for the requested range [0:100].
WARNING: aes_encrypt_core_tb.sv:42: $readmemh(cipher_text.txt): Not enough words in the file for the requested range [0:100].
  0 00112233445566778899aabbccddeeff 000102030405060708090a0b0c0d0e0f 69c4e0d86a7b0430d8cdb78070b4c55a
  1 f34481ec3cc627bacd5dc3fb08f273e6 00000000000000000000000000000000 0336763e966d92595a567cc9ce537f5e
  2 9798c4640bad75c7c3227db910174e72 00000000000000000000000000000000 a9a1631bf4996954ebc093957b234589
  3 96ab5c2ff612d9dfaae8c31f30c42168 00000000000000000000000000000000 ff4f8391a6a40ca5b25d23bedd44a597
  4 6a118a874519e64e9963798a503f1d35 00000000000000000000000000000000 dc43be40be0e53712f7e2bf5ca707209
  5 cb9fceec81286ca3e989bd979b0cb284 00000000000000000000000000000000 92beedab1895a94faa69b632e5cc47ce
  6 b26aeb1874e47ca8358ff22378f09144 00000000000000000000000000000000 459264f4798f6a78bacb89c15ed3d601
  7 58c8e00b2631686d54eab84b91f0aca1 00000000000000000000000000000000 08a4e2efec8a8e3312ca7460b9040bbf
  8 00000000000000000000000000000000 10a58869d74be5a374cf867cfb473859 6d251e6944b051e04eaa6fb4dbf78465
  9 00000000000000000000000000000000 caea65cdbb75e9169ecd22ebe6e54675 6e29201190152df4ee058139def610bb
 10 00000000000000000000000000000000 a2e2fa9baf7d20822ca9f0542f764a41 c3b44b95d9d2f25670eee9a0de099fa3
 11 00000000000000000000000000000000 b6364ac4e1de1e285eaf144a2415f7a0 5d9b05578fc944b3cf1ccf0e746cd581
 12 00000000000000000000000000000000 64cf9c7abc50b888af65f49d521944b2 f7efc89d5dba578104016ce5ad659c05
PASSED.
