sha1/hmac_core_tb1.log
VCD info: dumpfile hmac_core_tb1.vcd opened for output.
VCD warning: $dumpvars: Package ($unit) is not dumpable with VCD.
 x xxxxxxxx x xxxxxxxx xxxxxxxx xxxxxxxx 0  x | xxxxxxxx x
 2 xxxxxxxx 1 67452301 67452301 00000000 0  1 | 00000000 0
 3 xxxxxxxx 1 67452301 67452301 00000000 0  2 | xxxxxxxx 0
 4 xxxxxxxx 1 67452301 67452301 00000000 1  3 | xxxxxxxx 0
 5 xxxxxxxx 1 67452301 67452301 00000000 1  4 | xxxxxxxx 0
 6 xxxxxxxx 1 67452301 67452301 00000000 1  5 | xxxxxxxx 0
 7 xxxxxxxx 1 67452301 67452301 00000000 1  6 | xxxxxxxx 0
 8 xxxxxxxx 1 67452301 67452301 00000000 1  7 | xxxxxxxx 0
 9 xxxxxxxx 1 67452301 67452301 00000000 1  8 | xxxxxxxx 0
10 xxxxxxxx 1 67452301 67452301 00000000 1  9 | xxxxxxxx 0
11 xxxxxxxx 1 67452301 67452301 00000000 1 10 | xxxxxxxx 0
12 xxxxxxxx 1 67452301 67452301 00000000 1 11 | xxxxxxxx 0
13 xxxxxxxx 1 67452301 67452301 00000000 1 12 | xxxxxxxx 0
14 xxxxxxxx 1 67452301 67452301 00000000 1 13 | xxxxxxxx 0
15 xxxxxxxx 1 67452301 67452301 00000000 1 14 | xxxxxxxx 0
 0 xxxxxxxx 1 67452301 67452301 00000000 1 15 | xxxxxxxx 0
 1 6b657900 1 67452301 67452301 00000000 1 16 | xxxxxxxx 0
 2 00000000 1 67452301 67452301 00000000 1 17 | xxxxxxxx 0
 0 00000000 2 67452301 67452301 00000000 1 18 | xxxxxxxx 0
 1 5d534f36 3 67452301 67452301 67452301 1  0 | xxxxxxxx 0
 2 36363636 3 67452301 67452301 67452301 0  1 | 67452301 0
 3 36363636 3 67452301 67452301 67452301 0  2 | fd07e7e9 0
 4 36363636 3 67452301 67452301 67452301 0  3 | 3de40082 0
 5 36363636 3 67452301 67452301 67452301 0  4 | 41e4e5d6 0
 6 36363636 3 67452301 67452301 67452301 0  5 | c69a1e3b 0
 7 36363636 3 67452301 67452301 67452301 0  6 | fd2ed82f 0
 8 36363636 3 67452301 67452301 67452301 0  7 | 3f4ec7f9 0
 9 36363636 3 67452301 67452301 67452301 0  8 | fb825074 0
10 36363636 3 67452301 67452301 67452301 0  9 | 91667df2 0
11 36363636 3 67452301 67452301 67452301 0 10 | fefaac2e 0
12 36363636 3 67452301 67452301 67452301 0 11 | ce4b7fd5 0
13 36363636 3 67452301 67452301 67452301 0 12 | 4e54f8c3 0
14 36363636 3 67452301 67452301 67452301 0 13 | 4853077e 0
15 36363636 3 67452301 67452301 67452301 0 14 | 332e1add 0
 0 36363636 3 67452301 67452301 67452301 0 15 | 29cc9531 0
 1 5d534f36 3 67452301 67452301 67452301 0 16 | 10735ae6 0
 2 36363636 3 67452301 67452301 67452301 0 17 | 0d920fc0 0
 3 36363636 3 67452301 67452301 67452301 0 18 | c29fa9ce 0
 4 36363636 3 67452301 67452301 67452301 0 19 | 41b460b4 0
 5 36363636 3 67452301 67452301 67452301 0 20 | e1868d5e 0
 6 36363636 3 67452301 67452301 67452301 0 21 | d44f680b 0
 7 36363636 3 67452301 67452301 67452301 0 22 | a9e45c77 0
 8 36363636 3 67452301 67452301 67452301 0 23 | 44bda4e6 0
 9 36363636 3 67452301 67452301 67452301 0 24 | eb31426f 0
10 36363636 3 67452301 67452301 67452301 0 25 | 9deffba2 0
11 36363636 3 67452301 67452301 67452301 0 26 | 27a1b31a 0
12 36363636 3 67452301 67452301 67452301 0 27 | 22d52171 0
13 36363636 3 67452301 67452301 67452301 0 28 | 3e2d09d0 0
14 36363636 3 67452301 67452301 67452301 0 29 | a4f7930b 0
15 36363636 3 67452301 67452301 67452301 0 30 | 1b5da34e 0
 0 36363636 3 67452301 67452301 67452301 0 31 | 524a6557 0
 1 5d534f36 3 67452301 67452301 67452301 0 32 | cadc88af 0
 2 36363636 3 67452301 67452301 67452301 0 33 | dfe67e5f 0
 3 36363636 3 67452301 67452301 67452301 0 34 | 409c9f2e 0
 4 36363636 3 67452301 67452301 67452301 0 35 | a8aea502 0
 5 36363636 3 67452301 67452301 67452301 0 36 | 39a7effa 0
 6 36363636 3 67452301 67452301 67452301 0 37 | 95cd3410 0
 7 36363636 3 67452301 67452301 67452301 0 38 | a60cadad 0
 8 36363636 3 67452301 67452301 67452301 0 39 | 02b3256c 0
 9 36363636 3 67452301 67452301 67452301 0 40 | 6e9431fa 0
10 36363636 3 67452301 67452301 67452301 0 41 | 6251ae33 0
11 36363636 3 67452301 67452301 67452301 0 42 | 26af4cda 0
12 36363636 3 67452301 67452301 67452301 0 43 | 94f1d3c9 0
13 36363636 3 67452301 67452301 67452301 0 44 | 6ae1aab6 0
14 36363636 3 67452301 67452301 67452301 0 45 | 073e6792 0
15 36363636 3 67452301 67452301 67452301 0 46 | 8a4ff72b 0
 0 36363636 3 67452301 67452301 67452301 0 47 | 4be4be16 0
 1 5d534f36 3 67452301 67452301 67452301 0 48 | 10d70c19 0
 2 36363636 3 67452301 67452301 67452301 0 49 | f98a1ac0 0
 3 36363636 3 67452301 67452301 67452301 0 50 | 031302f9 0
 4 36363636 3 67452301 67452301 67452301 0 51 | 5e480da2 0
 5 36363636 3 67452301 67452301 67452301 0 52 | 81d718fa 0
 6 36363636 3 67452301 67452301 67452301 0 53 | 5a007682 0
 7 36363636 3 67452301 67452301 67452301 0 54 | c6a8eb1b 0
 8 36363636 3 67452301 67452301 67452301 0 55 | 82597287 0
 9 36363636 3 67452301 67452301 67452301 0 56 | 64507ca3 0
10 36363636 3 67452301 67452301 67452301 0 57 | cfc71910 0
11 36363636 3 67452301 67452301 67452301 0 58 | ef1c3a84 0
12 36363636 3 67452301 67452301 67452301 0 59 | 1bd4ee42 0
13 36363636 3 67452301 67452301 67452301 0 60 | a5650a34 0
14 36363636 3 67452301 67452301 67452301 0 61 | 8892f4b0 0
15 36363636 3 67452301 67452301 67452301 0 62 | 6621b692 0
 0 36363636 3 67452301 67452301 67452301 0 63 | 28ed559b 0
 1 5d534f36 3 67452301 67452301 67452301 0 64 | aad23f50 0
 2 36363636 3 67452301 67452301 67452301 0 65 | cf36fc6e 0
 3 36363636 3 67452301 67452301 67452301 0 66 | c07a833d 0
 4 36363636 3 67452301 67452301 67452301 0 67 | 91e3acfc 0
 5 36363636 3 67452301 67452301 67452301 0 68 | 3e8aad4f 0
 6 36363636 3 67452301 67452301 67452301 0 69 | ddda9873 0
 7 36363636 3 67452301 67452301 67452301 0 70 | c3507212 0
 8 36363636 3 67452301 67452301 67452301 0 71 | b26854f3 0
 9 36363636 3 67452301 67452301 67452301 0 72 | 5898ae0b 0
10 36363636 3 67452301 67452301 67452301 0 73 | dd6a96c6 0
11 36363636 3 67452301 67452301 67452301 0 74 | 9cdfccf6 0
12 36363636 3 67452301 67452301 67452301 0 75 | 2ac43391 0
13 36363636 3 67452301 67452301 67452301 0 76 | b4e95cb1 0
14 36363636 3 67452301 67452301 67452301 0 77 | 52e23f2a 0
15 36363636 3 67452301 67452301 67452301 0 78 | c382c4b0 0
 0 36363636 3 67452301 67452301 67452301 0 79 | acb20562 0
 1 5d534f36 3 67452301 67452301 67452301 0 80 | 7225d522 0
 2 36363636 3 67452301 67452301 67452301 0 81 | f06f904f 1
 0 00000000 4 57b4b350 67452301 67452301 0 81 | f06f904f 1
 1 3739255c 5 57b4b350 67452301 67452301 0  0 | f06f904f 0
 2 5c5c5c5c 5 57b4b350 67452301 67452301 0  1 | 67452301 0
 3 5c5c5c5c 5 57b4b350 67452301 67452301 0  2 | d6edbe0f 0
 4 5c5c5c5c 5 57b4b350 67452301 67452301 0  3 | a0c4eb63 0
 5 5c5c5c5c 5 57b4b350 67452301 67452301 0  4 | e20a6847 0
 6 5c5c5c5c 5 57b4b350 67452301 67452301 0  5 | 6db0b556 0
 7 5c5c5c5c 5 57b4b350 67452301 67452301 0  6 | bc77f942 0
 8 5c5c5c5c 5 57b4b350 67452301 67452301 0  7 | 241b0867 0
 9 5c5c5c5c 5 57b4b350 67452301 67452301 0  8 | fb554902 0
10 5c5c5c5c 5 57b4b350 67452301 67452301 0  9 | d987bdb5 0
11 5c5c5c5c 5 57b4b350 67452301 67452301 0 10 | 504fb055 0
12 5c5c5c5c 5 57b4b350 67452301 67452301 0 11 | 087830f7 0
13 5c5c5c5c 5 57b4b350 67452301 67452301 0 12 | 8dbd9934 0
14 5c5c5c5c 5 57b4b350 67452301 67452301 0 13 | a3793de3 0
15 5c5c5c5c 5 57b4b350 67452301 67452301 0 14 | 6c86ee0b 0
 0 5c5c5c5c 5 57b4b350 67452301 67452301 0 15 | ff3fa7d4 0
 1 3739255c 5 57b4b350 67452301 67452301 0 16 | cce12b1d 0
 2 5c5c5c5c 5 57b4b350 67452301 67452301 0 17 | 52558ba3 0
 3 5c5c5c5c 5 57b4b350 67452301 67452301 0 18 | 849ee912 0
 4 5c5c5c5c 5 57b4b350 67452301 67452301 0 19 | 491bc242 0
 5 5c5c5c5c 5 57b4b350 67452301 67452301 0 20 | b57f0e9c 0
 6 5c5c5c5c 5 57b4b350 67452301 67452301 0 21 | 28519797 0
 7 5c5c5c5c 5 57b4b350 67452301 67452301 0 22 | 8c793e6e 0
 8 5c5c5c5c 5 57b4b350 67452301 67452301 0 23 | ef2ad10e 0
 9 5c5c5c5c 5 57b4b350 67452301 67452301 0 24 | e48f9804 0
10 5c5c5c5c 5 57b4b350 67452301 67452301 0 25 | 7e17751d 0
11 5c5c5c5c 5 57b4b350 67452301 67452301 0 26 | d51cee81 0
12 5c5c5c5c 5 57b4b350 67452301 67452301 0 27 | d858366a 0
13 5c5c5c5c 5 57b4b350 67452301 67452301 0 28 | 7cf9d699 0
14 5c5c5c5c 5 57b4b350 67452301 67452301 0 29 | cd6708f1 0
15 5c5c5c5c 5 57b4b350 67452301 67452301 0 30 | 75e33e1f 0
 0 5c5c5c5c 5 57b4b350 67452301 67452301 0 31 | 1b2eb252 0
 1 3739255c 5 57b4b350 67452301 67452301 0 32 | fc19450e 0
 2 5c5c5c5c 5 57b4b350 67452301 67452301 0 33 | 652a8aac 0
 3 5c5c5c5c 5 57b4b350 67452301 67452301 0 34 | e81f8bd2 0
 4 5c5c5c5c 5 57b4b350 67452301 67452301 0 35 | fb79fb4e 0
 5 5c5c5c5c 5 57b4b350 67452301 67452301 0 36 | 9f1e53ba 0
 6 5c5c5c5c 5 57b4b350 67452301 67452301 0 37 | 77cb9b05 0
 7 5c5c5c5c 5 57b4b350 67452301 67452301 0 38 | db3ac165 0
 8 5c5c5c5c 5 57b4b350 67452301 67452301 0 39 | 9892691f 0
 9 5c5c5c5c 5 57b4b350 67452301 67452301 0 40 | 095ecfc9 0
10 5c5c5c5c 5 57b4b350 67452301 67452301 0 41 | 1447d755 0
11 5c5c5c5c 5 57b4b350 67452301 67452301 0 42 | b85d58f8 0
12 5c5c5c5c 5 57b4b350 67452301 67452301 0 43 | f87dc043 0
13 5c5c5c5c 5 57b4b350 67452301 67452301 0 44 | 7e709706 0
14 5c5c5c5c 5 57b4b350 67452301 67452301 0 45 | 33f5e204 0
15 5c5c5c5c 5 57b4b350 67452301 67452301 0 46 | 319aa1c9 0
 0 5c5c5c5c 5 57b4b350 67452301 67452301 0 47 | 0074fc90 0
 1 3739255c 5 57b4b350 67452301 67452301 0 48 | 17d3314b 0
 2 5c5c5c5c 5 57b4b350 67452301 67452301 0 49 | 11b4a3f1 0
 3 5c5c5c5c 5 57b4b350 67452301 67452301 0 50 | 9586a2e2 0
 4 5c5c5c5c 5 57b4b350 67452301 67452301 0 51 | 08c89cab 0
 5 5c5c5c5c 5 57b4b350 67452301 67452301 0 52 | d4ab3dbb 0
 6 5c5c5c5c 5 57b4b350 67452301 67452301 0 53 | f445a3d6 0
 7 5c5c5c5c 5 57b4b350 67452301 67452301 0 54 | 3fce8cd2 0
 8 5c5c5c5c 5 57b4b350 67452301 67452301 0 55 | 85d50aac 0
 9 5c5c5c5c 5 57b4b350 67452301 67452301 0 56 | 27e0af8c 0
10 5c5c5c5c 5 57b4b350 67452301 67452301 0 57 | 0a1367fe 0
11 5c5c5c5c 5 57b4b350 67452301 67452301 0 58 | 28170a0b 0
12 5c5c5c5c 5 57b4b350 67452301 67452301 0 59 | 84a741b7 0
13 5c5c5c5c 5 57b4b350 67452301 67452301 0 60 | d656849a 0
14 5c5c5c5c 5 57b4b350 67452301 67452301 0 61 | 002c6bc6 0
15 5c5c5c5c 5 57b4b350 67452301 67452301 0 62 | 41cb40b8 0
 0 5c5c5c5c 5 57b4b350 67452301 67452301 0 63 | f11892bf 0
 1 3739255c 5 57b4b350 67452301 67452301 0 64 | 92e7aa83 0
 2 5c5c5c5c 5 57b4b350 67452301 67452301 0 65 | 97944825 0
 3 5c5c5c5c 5 57b4b350 67452301 67452301 0 66 | 8b589267 0
 4 5c5c5c5c 5 57b4b350 67452301 67452301 0 67 | a82637f1 0
 5 5c5c5c5c 5 57b4b350 67452301 67452301 0 68 | 25ab5653 0
 6 5c5c5c5c 5 57b4b350 67452301 67452301 0 69 | f435c45a 0
 7 5c5c5c5c 5 57b4b350 67452301 67452301 0 70 | 29797eaf 0
 8 5c5c5c5c 5 57b4b350 67452301 67452301 0 71 | 3fcb6492 0
 9 5c5c5c5c 5 57b4b350 67452301 67452301 0 72 | 8b047e48 0
10 5c5c5c5c 5 57b4b350 67452301 67452301 0 73 | bab8e92a 0
11 5c5c5c5c 5 57b4b350 67452301 67452301 0 74 | 21b70934 0
12 5c5c5c5c 5 57b4b350 67452301 67452301 0 75 | 07df7a84 0
13 5c5c5c5c 5 57b4b350 67452301 67452301 0 76 | aceaf820 0
14 5c5c5c5c 5 57b4b350 67452301 67452301 0 77 | b2777223 0
15 5c5c5c5c 5 57b4b350 67452301 67452301 0 78 | 2caf0ca6 0
 0 5c5c5c5c 5 57b4b350 67452301 67452301 0 79 | 67d291d8 0
 1 3739255c 5 57b4b350 67452301 67452301 0 80 | bf0605e5 0
 2 5c5c5c5c 5 57b4b350 67452301 67452301 0 81 | 69973990 1
 2 00000000 6 57b4b350 d0dc5c91 57b4b350 0 81 | 69973990 1
IDLE
 2 00000000 6 57b4b350 d0dc5c91 57b4b350 0 81 | 69973990 1
 2 00000000 6 57b4b350 d0dc5c91 57b4b350 1 81 | 69973990 1
 2 00000000 6 57b4b350 d0dc5c91 57b4b350 1 81 | 69973990 1
 2 00000000 6 57b4b350 d0dc5c91 57b4b350 1 81 | 69973990 1
 2 6b206272 6 57b4b350 d0dc5c91 57b4b350 1 81 | 69973990 1
 2 6b206272 6 57b4b350 d0dc5c91 57b4b350 1 81 | 69973990 1
 2 6b206272 6 57b4b350 d0dc5c91 57b4b350 1 81 | 69973990 1
 2 6b206272 6 57b4b350 d0dc5c91 57b4b350 1 81 | 69973990 1
 2 6b206272 6 57b4b350 d0dc5c91 57b4b350 1 81 | 69973990 1
 2 6b206272 6 57b4b350 d0dc5c91 57b4b350 1 81 | 69973990 1
 2 6b206272 6 57b4b350 d0dc5c91 57b4b350 1 81 | 69973990 1
 2 6b206272 6 57b4b350 d0dc5c91 57b4b350 1 81 | 69973990 1
 2 6b206272 6 57b4b350 d0dc5c91 57b4b350 1 81 | 69973990 1
 2 6b206272 6 57b4b350 d0dc5c91 57b4b350 1 81 | 69973990 1
 2 6b206272 6 57b4b350 d0dc5c91 57b4b350 1 81 | 69973990 1
 2 6b206272 6 57b4b350 d0dc5c91 57b4b350 1 81 | 69973990 1
 0 6b206272 7 57b4b350 d0dc5c91 57b4b350 1 81 | 69973990 1
 1 54686520 8 57b4b350 d0dc5c91 57b4b350 1  0 | 69973990 0
 2 71756963 8 57b4b350 d0dc5c91 57b4b350 0  1 | 57b4b350 0
 3 6b206272 8 57b4b350 d0dc5c91 57b4b350 0  2 | 3fefbf7f 0
 4 6f776e20 8 57b4b350 d0dc5c91 57b4b350 0  3 | 5b7ac48b 0
 5 666f7820 8 57b4b350 d0dc5c91 57b4b350 0  4 | 4ee03820 0
 6 6a756d70 8 57b4b350 d0dc5c91 57b4b350 0  5 | ce7db8cb 0
 7 73206f76 8 57b4b350 d0dc5c91 57b4b350 0  6 | 6e723005 0
 8 65722074 8 57b4b350 d0dc5c91 57b4b350 0  7 | 75f3e0bd 0
 9 6865206c 8 57b4b350 d0dc5c91 57b4b350 0  8 | d697dfe7 0
10 617a7920 8 57b4b350 d0dc5c91 57b4b350 0  9 | 7a453312 0
11 646f6780 8 57b4b350 d0dc5c91 57b4b350 0 10 | 5c4a42ad 0
12 00000000 8 57b4b350 d0dc5c91 57b4b350 0 11 | 161fcfa2 0
13 00000000 8 57b4b350 d0dc5c91 57b4b350 0 12 | 9e0ec35e 0
14 00000000 8 57b4b350 d0dc5c91 57b4b350 0 13 | b0935e4b 0
15 00000000 8 57b4b350 d0dc5c91 57b4b350 0 14 | d09663bc 0
 0 00000358 8 57b4b350 d0dc5c91 57b4b350 0 15 | 69e933c1 0
 1 54686520 8 57b4b350 d0dc5c91 57b4b350 0 16 | 0436b981 0
 2 71756963 8 57b4b350 d0dc5c91 57b4b350 0 17 | 2d0332bb 0
 3 6b206272 8 57b4b350 d0dc5c91 57b4b350 0 18 | c59afffa 0
 4 6f776e20 8 57b4b350 d0dc5c91 57b4b350 0 19 | 94727d06 0
 5 666f7820 8 57b4b350 d0dc5c91 57b4b350 0 20 | d6933119 0
 6 6a756d70 8 57b4b350 d0dc5c91 57b4b350 0 21 | a009a33a 0
 7 73206f76 8 57b4b350 d0dc5c91 57b4b350 0 22 | d5b8086a 0
 8 65722074 8 57b4b350 d0dc5c91 57b4b350 0 23 | 02830957 0
 9 6865206c 8 57b4b350 d0dc5c91 57b4b350 0 24 | 08620d2a 0
10 617a7920 8 57b4b350 d0dc5c91 57b4b350 0 25 | b79edb06 0
11 646f6780 8 57b4b350 d0dc5c91 57b4b350 0 26 | ba23560c 0
12 00000000 8 57b4b350 d0dc5c91 57b4b350 0 27 | 669ba82b 0
13 00000000 8 57b4b350 d0dc5c91 57b4b350 0 28 | ba4d1887 0
14 00000000 8 57b4b350 d0dc5c91 57b4b350 0 29 | eea6ddc1 0
15 00000000 8 57b4b350 d0dc5c91 57b4b350 0 30 | fe7b9570 0
 0 00000358 8 57b4b350 d0dc5c91 57b4b350 0 31 | 7c85a6fc 0
 1 54686520 8 57b4b350 d0dc5c91 57b4b350 0 32 | 3bd20674 0
 2 71756963 8 57b4b350 d0dc5c91 57b4b350 0 33 | df2ae126 0
 3 6b206272 8 57b4b350 d0dc5c91 57b4b350 0 34 | e2be9e0d 0
 4 6f776e20 8 57b4b350 d0dc5c91 57b4b350 0 35 | 84fd4649 0
 5 666f7820 8 57b4b350 d0dc5c91 57b4b350 0 36 | 5e1455b6 0
 6 6a756d70 8 57b4b350 d0dc5c91 57b4b350 0 37 | 3695c495 0
 7 73206f76 8 57b4b350 d0dc5c91 57b4b350 0 38 | f99f6407 0
 8 65722074 8 57b4b350 d0dc5c91 57b4b350 0 39 | d8cbf67e 0
 9 6865206c 8 57b4b350 d0dc5c91 57b4b350 0 40 | fcaeb546 0
10 617a7920 8 57b4b350 d0dc5c91 57b4b350 0 41 | b7f14ad4 0
11 646f6780 8 57b4b350 d0dc5c91 57b4b350 0 42 | 0de376ac 0
12 00000000 8 57b4b350 d0dc5c91 57b4b350 0 43 | 0d97dcda 0
13 00000000 8 57b4b350 d0dc5c91 57b4b350 0 44 | 1b858bac 0
14 00000000 8 57b4b350 d0dc5c91 57b4b350 0 45 | 99e17fe7 0
15 00000000 8 57b4b350 d0dc5c91 57b4b350 0 46 | f689d58d 0
 0 00000358 8 57b4b350 d0dc5c91 57b4b350 0 47 | c92ab23d 0
 1 54686520 8 57b4b350 d0dc5c91 57b4b350 0 48 | 65f0d7c0 0
 2 71756963 8 57b4b350 d0dc5c91 57b4b350 0 49 | 916669fa 0
 3 6b206272 8 57b4b350 d0dc5c91 57b4b350 0 50 | 04b2099b 0
 4 6f776e20 8 57b4b350 d0dc5c91 57b4b350 0 51 | 510567f5 0
 5 666f7820 8 57b4b350 d0dc5c91 57b4b350 0 52 | b9084820 0
 6 6a756d70 8 57b4b350 d0dc5c91 57b4b350 0 53 | 78b71dc3 0
 7 73206f76 8 57b4b350 d0dc5c91 57b4b350 0 54 | 80ad7ea9 0
 8 65722074 8 57b4b350 d0dc5c91 57b4b350 0 55 | 5f5d4533 0
 9 6865206c 8 57b4b350 d0dc5c91 57b4b350 0 56 | 4276006e 0
10 617a7920 8 57b4b350 d0dc5c91 57b4b350 0 57 | 7da39fcf 0
11 646f6780 8 57b4b350 d0dc5c91 57b4b350 0 58 | 05d8aea1 0
12 00000000 8 57b4b350 d0dc5c91 57b4b350 0 59 | f2937500 0
13 00000000 8 57b4b350 d0dc5c91 57b4b350 0 60 | 6a9c2bfa 0
14 00000000 8 57b4b350 d0dc5c91 57b4b350 0 61 | 0b23d3e2 0
15 00000000 8 57b4b350 d0dc5c91 57b4b350 0 62 | 77e2735d 0
 0 00000358 8 57b4b350 d0dc5c91 57b4b350 0 63 | 637b4815 0
 1 54686520 8 57b4b350 d0dc5c91 57b4b350 0 64 | fae311a0 0
 2 71756963 8 57b4b350 d0dc5c91 57b4b350 0 65 | 98f92bb2 0
 3 6b206272 8 57b4b350 d0dc5c91 57b4b350 0 66 | 4f19183d 0
 4 6f776e20 8 57b4b350 d0dc5c91 57b4b350 0 67 | 33e867b1 0
 5 666f7820 8 57b4b350 d0dc5c91 57b4b350 0 68 | 66149c8d 0
 6 6a756d70 8 57b4b350 d0dc5c91 57b4b350 0 69 | fa74b0c9 0
 7 73206f76 8 57b4b350 d0dc5c91 57b4b350 0 70 | 2f72d9f6 0
 8 65722074 8 57b4b350 d0dc5c91 57b4b350 0 71 | 586fcd5e 0
 9 6865206c 8 57b4b350 d0dc5c91 57b4b350 0 72 | 9f23545c 0
10 617a7920 8 57b4b350 d0dc5c91 57b4b350 0 73 | d0adb18e 0
11 646f6780 8 57b4b350 d0dc5c91 57b4b350 0 74 | ebd92752 0
12 00000000 8 57b4b350 d0dc5c91 57b4b350 0 75 | 0f71c741 0
13 00000000 8 57b4b350 d0dc5c91 57b4b350 0 76 | 3f3eae39 0
14 00000000 8 57b4b350 d0dc5c91 57b4b350 0 77 | ed437b12 0
15 00000000 8 57b4b350 d0dc5c91 57b4b350 0 78 | c77d83df 0
 0 00000358 8 57b4b350 d0dc5c91 57b4b350 0 79 | 7a1efdb5 0
 1 54686520 8 57b4b350 d0dc5c91 57b4b350 0 80 | b427367d 0
 2 71756963 8 57b4b350 d0dc5c91 57b4b350 0 81 | b74962a9 1
 2 6b206272 6 57b4b350 d0dc5c91 0efe15f9 0 81 | b74962a9 1
FINISH
 2 6b206272 9 57b4b350 d0dc5c91 0efe15f9 0 81 | b74962a9 1
 2 6b206272 9 57b4b350 d0dc5c91 0efe15f9 0 81 | b74962a9 1
 2 6b206272 9 57b4b350 d0dc5c91 0efe15f9 0 81 | b74962a9 1
 2 6b206272 9 57b4b350 d0dc5c91 0efe15f9 0 81 | b74962a9 1
 2 a26f1dc3 9 57b4b350 d0dc5c91 0efe15f9 0 81 | b74962a9 1
 2 a26f1dc3 9 57b4b350 d0dc5c91 0efe15f9 0 81 | b74962a9 1
 2 a26f1dc3 9 57b4b350 d0dc5c91 0efe15f9 0 81 | b74962a9 1
 2 a26f1dc3 9 57b4b350 d0dc5c91 0efe15f9 0 81 | b74962a9 1
 2 a26f1dc3 9 57b4b350 d0dc5c91 0efe15f9 0 81 | b74962a9 1
 2 a26f1dc3 9 57b4b350 d0dc5c91 0efe15f9 0 81 | b74962a9 1
 2 a26f1dc3 9 57b4b350 d0dc5c91 0efe15f9 0 81 | b74962a9 1
 2 a26f1dc3 9 57b4b350 d0dc5c91 0efe15f9 0 81 | b74962a9 1
 2 a26f1dc3 9 57b4b350 d0dc5c91 0efe15f9 0 81 | b74962a9 1
 2 a26f1dc3 9 57b4b350 d0dc5c91 0efe15f9 0 81 | b74962a9 1
 2 a26f1dc3 9 57b4b350 d0dc5c91 0efe15f9 0 81 | b74962a9 1
 2 a26f1dc3 9 57b4b350 d0dc5c91 0efe15f9 0 81 | b74962a9 1
 0 a26f1dc3 a 57b4b350 d0dc5c91 0efe15f9 0 81 | b74962a9 1
 1 0efe15f9 b 57b4b350 d0dc5c91 d0dc5c91 0  0 | b74962a9 0
 2 161ab728 b 57b4b350 d0dc5c91 d0dc5c91 0  1 | d0dc5c91 0
 3 a26f1dc3 b 57b4b350 d0dc5c91 d0dc5c91 0  2 | e90c6839 0
 4 32f26699 b 57b4b350 d0dc5c91 d0dc5c91 0  3 | d0401d12 0
 5 13dc507e b 57b4b350 d0dc5c91 d0dc5c91 0  4 | 1a593f8c 0
 6 80000000 b 57b4b350 d0dc5c91 d0dc5c91 0  5 | f8c8d836 0
 7 00000000 b 57b4b350 d0dc5c91 d0dc5c91 0  6 | 6bc2ef20 0
 8 00000000 b 57b4b350 d0dc5c91 d0dc5c91 0  7 | d1b3c716 0
 9 00000000 b 57b4b350 d0dc5c91 d0dc5c91 0  8 | 73218a7a 0
10 00000000 b 57b4b350 d0dc5c91 d0dc5c91 0  9 | 03facbd3 0
11 00000000 b 57b4b350 d0dc5c91 d0dc5c91 0 10 | d0fedbc6 0
12 00000000 b 57b4b350 d0dc5c91 d0dc5c91 0 11 | 4a1b20d1 0
13 00000000 b 57b4b350 d0dc5c91 d0dc5c91 0 12 | 1f523863 0
14 00000000 b 57b4b350 d0dc5c91 d0dc5c91 0 13 | 62919b8f 0
15 00000000 b 57b4b350 d0dc5c91 d0dc5c91 0 14 | 1fe42d29 0
 0 000002a0 b 57b4b350 d0dc5c91 d0dc5c91 0 15 | 5dde9fe5 0
 1 0efe15f9 b 57b4b350 d0dc5c91 d0dc5c91 0 16 | 4191e4a9 0
 2 161ab728 b 57b4b350 d0dc5c91 d0dc5c91 0 17 | 1a8c0abb 0
 3 a26f1dc3 b 57b4b350 d0dc5c91 d0dc5c91 0 18 | 2543f83f 0
 4 32f26699 b 57b4b350 d0dc5c91 d0dc5c91 0 19 | ea43dd93 0
 5 13dc507e b 57b4b350 d0dc5c91 d0dc5c91 0 20 | b2037378 0
 6 80000000 b 57b4b350 d0dc5c91 d0dc5c91 0 21 | 8fd72de1 0
 7 00000000 b 57b4b350 d0dc5c91 d0dc5c91 0 22 | 66420acb 0
 8 00000000 b 57b4b350 d0dc5c91 d0dc5c91 0 23 | 210085ee 0
 9 00000000 b 57b4b350 d0dc5c91 d0dc5c91 0 24 | 61f499e9 0
10 00000000 b 57b4b350 d0dc5c91 d0dc5c91 0 25 | dd8b9b00 0
11 00000000 b 57b4b350 d0dc5c91 d0dc5c91 0 26 | f445a959 0
12 00000000 b 57b4b350 d0dc5c91 d0dc5c91 0 27 | abf72735 0
13 00000000 b 57b4b350 d0dc5c91 d0dc5c91 0 28 | 27fc0bc8 0
14 00000000 b 57b4b350 d0dc5c91 d0dc5c91 0 29 | 795aa27b 0
15 00000000 b 57b4b350 d0dc5c91 d0dc5c91 0 30 | f417f959 0
 0 000002a0 b 57b4b350 d0dc5c91 d0dc5c91 0 31 | 2a220c00 0
 1 0efe15f9 b 57b4b350 d0dc5c91 d0dc5c91 0 32 | 8f14c9a6 0
 2 161ab728 b 57b4b350 d0dc5c91 d0dc5c91 0 33 | 8c040db7 0
 3 a26f1dc3 b 57b4b350 d0dc5c91 d0dc5c91 0 34 | 10d7efb9 0
 4 32f26699 b 57b4b350 d0dc5c91 d0dc5c91 0 35 | 69019dc3 0
 5 13dc507e b 57b4b350 d0dc5c91 d0dc5c91 0 36 | b7a8b903 0
 6 80000000 b 57b4b350 d0dc5c91 d0dc5c91 0 37 | ec224edd 0
 7 00000000 b 57b4b350 d0dc5c91 d0dc5c91 0 38 | abedcb4b 0
 8 00000000 b 57b4b350 d0dc5c91 d0dc5c91 0 39 | 940828e4 0
 9 00000000 b 57b4b350 d0dc5c91 d0dc5c91 0 40 | 9e57b70a 0
10 00000000 b 57b4b350 d0dc5c91 d0dc5c91 0 41 | 816fa0aa 0
11 00000000 b 57b4b350 d0dc5c91 d0dc5c91 0 42 | aeef44f4 0
12 00000000 b 57b4b350 d0dc5c91 d0dc5c91 0 43 | 6960e1e8 0
13 00000000 b 57b4b350 d0dc5c91 d0dc5c91 0 44 | 7c3fc4e2 0
14 00000000 b 57b4b350 d0dc5c91 d0dc5c91 0 45 | 4554c3be 0
15 00000000 b 57b4b350 d0dc5c91 d0dc5c91 0 46 | 063face8 0
 0 000002a0 b 57b4b350 d0dc5c91 d0dc5c91 0 47 | 8d038095 0
 1 0efe15f9 b 57b4b350 d0dc5c91 d0dc5c91 0 48 | 7c6581ba 0
 2 161ab728 b 57b4b350 d0dc5c91 d0dc5c91 0 49 | af47ae46 0
 3 a26f1dc3 b 57b4b350 d0dc5c91 d0dc5c91 0 50 | b50bc003 0
 4 32f26699 b 57b4b350 d0dc5c91 d0dc5c91 0 51 | 9d1576b5 0
 5 13dc507e b 57b4b350 d0dc5c91 d0dc5c91 0 52 | 14ce77fa 0
 6 80000000 b 57b4b350 d0dc5c91 d0dc5c91 0 53 | 8339bdfa 0
 7 00000000 b 57b4b350 d0dc5c91 d0dc5c91 0 54 | f4aa8dbb 0
 8 00000000 b 57b4b350 d0dc5c91 d0dc5c91 0 55 | 95deaa67 0
 9 00000000 b 57b4b350 d0dc5c91 d0dc5c91 0 56 | e9332a0e 0
10 00000000 b 57b4b350 d0dc5c91 d0dc5c91 0 57 | 33f99b1e 0
11 00000000 b 57b4b350 d0dc5c91 d0dc5c91 0 58 | b25d384d 0
