sha1/sha1block_tb.log
VCD info: dumpfile sha1block_tb.vcd opened for output.
VCD warning: $dumpvars: Package ($unit) is not dumpable with VCD.
 i  rst   word   |  t words[0] |
  0  0  00000000 |  0 xxxxxxxx | 00000000 00000000 00000000 00000000 00000000
  1  1  00000000 |  0 00000000 | 00000000 00000000 00000000 00000000 00000000
  2  1  00000000 |  0 00000000 | 67452301 efcdab89 98badcfe 10325476 c3d2e1f0
  3  1  00000000 |  0 00000000 | 67452301 efcdab89 98badcfe 10325476 c3d2e1f0
  4  0  61626380 |  0 00000000 | 67452301 efcdab89 98badcfe 10325476 c3d2e1f0
  5  0  00000000 |  1 61626380 | 67452301 efcdab89 98badcfe 10325476 c3d2e1f0
  6  0  00000000 |  2 00000000 | 0116fc33 67452301 7bf36ae2 98badcfe 10325476
  7  0  00000000 |  3 00000000 | 8990536d 0116fc33 59d148c0 7bf36ae2 98badcfe
  8  0  00000000 |  4 00000000 | a1390f08 8990536d c045bf0c 59d148c0 7bf36ae2
  9  0  00000000 |  5 00000000 | cdd8e11b a1390f08 626414db c045bf0c 59d148c0
 10  0  00000000 |  6 00000000 | cfd499de cdd8e11b 284e43c2 626414db c045bf0c
 11  0  00000000 |  7 00000000 | 3fc7ca40 cfd499de f3763846 284e43c2 626414db
 12  0  00000000 |  8 00000000 | 993e30c1 3fc7ca40 b3f52677 f3763846 284e43c2
 13  0  00000000 |  9 00000000 | 9e8c07d4 993e30c1 0ff1f290 b3f52677 f3763846
 14  0  00000000 | 10 00000000 | 4b6ae328 9e8c07d4 664f8c30 0ff1f290 b3f52677
 15  0  00000000 | 11 00000000 | 8351f929 4b6ae328 27a301f5 664f8c30 0ff1f290
 16  0  00000000 | 12 00000000 | fbda9e89 8351f929 12dab8ca 27a301f5 664f8c30
 17  0  00000000 | 13 00000000 | 63188fe4 fbda9e89 60d47e4a 12dab8ca 27a301f5
 18  0  00000000 | 14 00000000 | 4607b664 63188fe4 7ef6a7a2 60d47e4a 12dab8ca
 19  0  00000018 | 15 00000000 | 9128f695 4607b664 18c623f9 7ef6a7a2 60d47e4a
 20  0  00000018 | 16 00000018 | 196bee77 9128f695 1181ed99 18c623f9 7ef6a7a2
 21  0  00000018 | 17 c2c4c700 | 20bdd62f 196bee77 644a3da5 1181ed99 18c623f9
 22  0  00000018 | 18 00000000 | 4e925823 20bdd62f c65afb9d 644a3da5 1181ed99
 23  0  00000018 | 19 00000030 | 82aa6728 4e925823 c82f758b c65afb9d 644a3da5
 24  0  00000018 | 20 85898e01 | dc64901d 82aa6728 d3a49608 c82f758b c65afb9d
 25  0  00000018 | 21 00000000 | fd9e1d7d dc64901d 20aa99ca d3a49608 c82f758b
 26  0  00000018 | 22 00000060 | 1a37b0ca fd9e1d7d 77192407 20aa99ca d3a49608
 27  0  00000018 | 23 0b131c03 | 33a23bfc 1a37b0ca 7f67875f 77192407 20aa99ca
 28  0  00000018 | 24 00000030 | 21283486 33a23bfc 868dec32 7f67875f 77192407
 29  0  00000018 | 25 85898ec1 | d541f12d 21283486 0ce88eff 868dec32 7f67875f
 30  0  00000018 | 26 16263806 | c7567dc6 d541f12d 884a0d21 0ce88eff 868dec32
 31  0  00000018 | 27 00000000 | 48413ba4 c7567dc6 75507c4b 884a0d21 0ce88eff
 32  0  00000018 | 28 00000180 | be35fbd5 48413ba4 b1d59f71 75507c4b 884a0d21
 33  0  00000018 | 29 2c4c700c | 4aa84d97 be35fbd5 12104ee9 b1d59f71 75507c4b
 34  0  00000018 | 30 000000f0 | 8370b52e 4aa84d97 6f8d7ef5 12104ee9 b1d59f71
 35  0  00000018 | 31 93afb507 | c5fbaf5d 8370b52e d2aa1365 6f8d7ef5 12104ee9
 36  0  00000018 | 32 5898e048 | 1267b407 c5fbaf5d a0dc2d4b d2aa1365 6f8d7ef5
 37  0  00000018 | 33 8e9a9202 | 3b845d33 1267b407 717eebd7 a0dc2d4b d2aa1365
 38  0  00000018 | 34 00000600 | 046faa0a 3b845d33 c499ed01 717eebd7 a0dc2d4b
 39  0  00000018 | 35 b131c0f0 | 2c0ebc11 046faa0a cee1174c c499ed01 717eebd7
 40  0  00000018 | 36 16263bc6 | 21796ad4 2c0ebc11 811bea82 cee1174c c499ed01
 41  0  00000018 | 37 4ebed41e | dcbbb0cb 21796ad4 4b03af04 811bea82 cee1174c
 42  0  00000018 | 38 626380a1 | 0f511fd8 dcbbb0cb 085e5ab5 4b03af04 811bea82
 43  0  00000018 | 39 16263806 | dc63973f 0f511fd8 f72eec32 085e5ab5 4b03af04
 44  0  00000018 | 40 000018c0 | 4c986405 dc63973f 03d447f6 f72eec32 085e5ab5
 45  0  00000018 | 41 d2e138c4 | 32de1cba 4c986405 f718e5cf 03d447f6 f72eec32
 46  0  00000018 | 42 00000f00 | fc87dedf 32de1cba 53261901 f718e5cf 03d447f6
 47  0  00000018 | 43 3afb5079 | 970a0d5c fc87dedf 8cb7872e 53261901 f718e5cf
 48  0  00000018 | 44 898e04e5 | 7f193dc5 970a0d5c ff21f7b7 8cb7872e 53261901
 49  0  00000018 | 45 e2ba3c2b | ee1b1aaf 7f193dc5 25c28357 ff21f7b7 8cb7872e
 50  0  00000018 | 46 000060c0 | 40f28e09 ee1b1aaf 5fc64f71 25c28357 ff21f7b7
 51  0  00000018 | 47 053a37cd | 1c51e1f2 40f28e09 fb86c6ab 5fc64f71 25c28357
 52  0  00000018 | 48 74458547 | a01b846c 1c51e1f2 503ca382 fb86c6ab 5fc64f71
 53  0  00000018 | 49 da9415ed | bead02ca a01b846c 8714787c 503ca382 fb86c6ab
 54  0  00000018 | 50 26380a16 | baf39337 bead02ca 2806e11b 8714787c 503ca382
 55  0  00000018 | 51 626383a1 | 120731c5 baf39337 afab40b2 2806e11b 8714787c
 56  0  00000018 | 52 4ebf54de | 641db2ce 120731c5 eebce4cd afab40b2 2806e11b
 57  0  00000018 | 53 3835b44b | 3847ad66 641db2ce 4481cc71 eebce4cd afab40b2
 58  0  00000018 | 54 0000f600 | e490436d 3847ad66 99076cb3 4481cc71 eebce4cd
 59  0  00000018 | 55 1e84c7a3 | 27e9f1d8 e490436d 8e11eb59 99076cb3 4481cc71
 60  0  00000018 | 56 98e04d98 | 7b71f76d 27e9f1d8 792410db 8e11eb59 99076cb3
 61  0  00000018 | 57 651d16a0 | 5e6456af 7b71f76d 09fa7c76 792410db 8e11eb59
 62  0  00000018 | 58 62658ca1 | c846093f 5e6456af 5edc7ddb 09fa7c76 792410db
 63  0  00000018 | 59 458544d6 | d262ff50 c846093f d79915ab 5edc7ddb 09fa7c76
 64  0  00000018 | 60 44584cb7 | 09d785fd d262ff50 f211824f d79915ab 5edc7ddb
 65  0  00000018 | 61 7ba06619 | 3f52de5a 09d785fd 3498bfd4 f211824f d79915ab
 66  0  00000018 | 62 6380aea2 | d756c147 3f52de5a 4275e17f 3498bfd4 f211824f
 67  0  00000018 | 63 0ae55269 | 548c9cb2 d756c147 8fd4b796 4275e17f 3498bfd4
 68  0  00000018 | 64 627b49a1 | b66c020b 548c9cb2 f5d5b051 8fd4b796 4275e17f
 69  0  00000018 | 65 7cd45c9d | 6b61c9e1 b66c020b 9523272c f5d5b051 8fd4b796
 70  0  00000018 | 66 000f0000 | 19dfa7ac 6b61c9e1 ed9b0082 9523272c f5d5b051
 71  0  00000018 | 67 fb50753a | 101655f9 19dfa7ac 5ad87278 ed9b0082 9523272c
 72  0  00000018 | 68 ec6765e8 | 0c3df2b4 101655f9 0677e9eb 5ad87278 ed9b0082
 73  0  00000018 | 69 ba3c2be2 | 78dd4d2b 0c3df2b4 4405957e 0677e9eb 5ad87278
 74  0  00000018 | 70 0060c000 | 497093c0 78dd4d2b 030f7cad 4405957e 0677e9eb
 75  0  00000018 | 71 3a37cd05 | 3f2588c2 497093c0 de37534a 030f7cad 4405957e
 76  0  00000018 | 72 458546f4 | c199f8c7 3f2588c2 125c24f0 de37534a 030f7cad
 77  0  00000018 | 73 b8599dd6 | 39859de7 c199f8c7 8fc96230 125c24f0 de37534a
 78  0  00000018 | 74 380a1a26 | edb42de4 39859de7 f0667e31 8fc96230 125c24f0
 79  0  00000018 | 75 01e02203 | 11793f6f edb42de4 ce616779 f0667e31 8fc96230
 80  0  00000018 | 76 e7cc3456 | 5ee76897 11793f6f 3b6d0b79 ce616779 f0667e31
 81  0  00000018 | 77 e6e60b69 | 63f7dab7 5ee76897 c45e4fdb 3b6d0b79 ce616779
 82  0  00000018 | 78 00f60a00 | a079b7d9 63f7dab7 d7b9da25 c45e4fdb 3b6d0b79
 83  0  00000018 | 79 5795ef4f | 860d21cc a079b7d9 d8fdf6ad d7b9da25 c45e4fdb
 84  0  00000018 | 80 822e0879 | 5738d5e1 860d21cc 681e6df6 d8fdf6ad d7b9da25
 85  0  00000018 | 81 7e577ce2 | 42541b35 5738d5e1 21834873 681e6df6 d8fdf6ad
*** PASSED 0xa9993e364706816aba3e25717850c26c9cd0d89d
 86  0  00000018 | 81 07ef2103 | 42541b35 5738d5e1 21834873 681e6df6 d8fdf6ad
 87  0  00000018 | 81 8544e945 | 42541b35 5738d5e1 21834873 681e6df6 d8fdf6ad
 88  0  00000018 | 81 eb39dab8 | 42541b35 5738d5e1 21834873 681e6df6 d8fdf6ad
 89  0  00000018 | 81 c205991a | 42541b35 5738d5e1 21834873 681e6df6 d8fdf6ad
 90  0  00000018 | 81 80aecb63 | 42541b35 5738d5e1 21834873 681e6df6 d8fdf6ad
 91  0  00000018 | 81 7d84ca48 | 42541b35 5738d5e1 21834873 681e6df6 d8fdf6ad
