aes/basic/aes_encrypt_core_basic_tb.log
VCD info: dumpfile aes_encrypt_core_basic_tb.vcd opened for output.
VCD warning: $dumpvars: Package ($unit) is not dumpable with VCD.
 0 00000000000000000000000000000000 xxxxxxxxxxxxxxxxxxxxxxxxxxxxxxxx
 0 00000000000000000000000000000000 00000000000000000000000000000000
 1 3243f6a8885a308d313198a2e0370734 2b7e151628aed2a6abf7158809cf4f3c
 2 193de3bea0f4e22b9ac68d2ae9f84808 a0fafe1788542cb123a339392a6c7605
 3 a49c7ff2689f352b6b5bea43026a5049 f2c295f27a96b9435935807a7359f67f
 4 aa8f5f0361dde3ef82d24ad26832469a 3d80477d4716fe3e1e237e446d7a883b
 5 486c4eee671d9d0d4de3b138d65f58e7 ef44a541a8525b7fb671253bdb0bad00
 6 e0927fe8c86363c0d9b1355085b8be01 d4d1c6f87c839d87caf2b8bc11f915bc
 7 f1006f55c1924cef7cc88b325db5d50c 6d88a37a110b3efddbf98641ca0093fd
 8 260e2e173d41b77de86472a9fdd28b25 4e54f70e5f5fc9f384a64fb24ea6dc4f
 9 5a4142b11949dc1fa3e019657a8c040c ead27321b58dbad2312bf5607f8d292f
10 ea835cf00445332d655d98ad8596b0c5 ac7766f319fadc2128d12941575c006e
11 eb40f21e592e38848ba113e71bc342d2 d014f9a8c9ee2589e13f0cc8b6630ca6
12 3925841d02dc09fbdc118597196a0b32 47eadde68e04f86f6f3bf4a7d958f801
12 3925841d02dc09fbdc118597196a0b32 f5aba1d37baf59bc1494ad1bcdcc551a
12 3925841d02dc09fbdc118597196a0b32 6657036e1df85ad2096cf7c9c4a0a2d3
12 3925841d02dc09fbdc118597196a0b32 5e6d657243953fa04af9c8698e596aba
12 3925841d02dc09fbdc118597196a0b32 4d6f916b0efaaecb440366a2ca5a0c18
12 3925841d02dc09fbdc118597196a0b32 2b913c1f256b92d46168f476ab32f86e
 0 3925841d02dc09fbdc118597196a0b32 d0d0a37df5bb31a994d3c5df3fe13db1
 1 00112233445566778899aabbccddeeff 000102030405060708090a0b0c0d0e0f
 2 00102030405060708090a0b0c0d0e0f0 d6aa74fdd2af72fadaa678f1d6ab76fe
 3 89d810e8855ace682d1843d8cb128fe4 b692cf0b643dbdf1be9bc5006830b3fe
 4 4915598f55e5d7a0daca94fa1f0a63f7 b6ff744ed2c2c9bf6c590cbf0469bf41
 5 fa636a2825b339c940668a3157244d17 47f7f7bc95353e03f96c32bcfd058dfd
 6 247240236966b3fa6ed2753288425b6c 3caaa3e8a99f9deb50f3af57adf622aa
 7 c81677bc9b7ac93b25027992b0261996 5e390f7df7a69296a7553dc10aa31f6b
 8 c62fe109f75eedc3cc79395d84f9cf5d 14f9701ae35fe28c440adf4d4ea9c026
 9 d1876c0f79c4300ab45594add66ff41f 47438735a41c65b9e016baf4aebf7ad2
10 fde3bad205e5d0d73547964ef1fe37f1 549932d1f08557681093ed9cbe2c974e
11 bd6e7c3df2b5779e0b61216e8b10b689 13111d7fe3944a17f307a78b4d2b30c5
12 69c4e0d86a7b0430d8cdb78070b4c55a 8e15bb9c6d81f18b9e865600d3ad66c5
12 69c4e0d86a7b0430d8cdb78070b4c55a c3261dfaaea7ec713021ba71e38cdcb4
12 69c4e0d86a7b0430d8cdb78070b4c55a 7fa090ebd1077c9ae126c6eb02aa1a5f
12 69c4e0d86a7b0430d8cdb78070b4c55a 0b025f9cda0523063b23e5ed3989ffb2
12 69c4e0d86a7b0430d8cdb78070b4c55a 7414688eae114b889532ae65acbb51d7
12 69c4e0d86a7b0430d8cdb78070b4c55a 46c5661fe8d42d977de683f2d15dd225
