aes/basic/aes_encrypt_core_tb.log
VCD info: dumpfile aes_encrypt_core_tb.vcd opened for output.
VCD warning: $dumpvars: Unsupported argument type (vpiPackage)
3925841d02dc09fbdc118597196a0b32
WARNING: aes_encrypt_core_tb.sv:40: $readmemh(plain_text.txt): Not enough words in the file for the requested range [0:100].
WARNING: aes_encrypt_core_tb.sv:41: $readmemh(key.txt): Not enough words in the file for the requested range [0:100].
WARNING: aes_encrypt_core_tb.sv:42: $readmemh(cipher_text.txt): Not enough words in the file for the requested range [0:100].
  0 00112233445566778899aabbccddeeff 000102030405060708090a0b0c0d0e0f 69c4e0d86a7b0430d8cdb78070b4c55a
  1 f34481ec3cc627bacd5dc3fb08f273e6 00000000000000000000000000000000 0336763e966d92595a567cc9ce537f5e
  2 9798c4640bad75c7c3227db910174e72 00000000000000000000000000000000 a9a1631bf4996954ebc093957b234589
  3 96ab5c2ff612d9dfaae8c31f30c42168 00000000000000000000000000000000 ff4f8391a6a40ca5b25d23bedd44a597
  4 6a118a874519e64e9963798a503f1d35 00000000000000000000000000000000 dc43be40be0e53712f7e2bf5ca707209
  5 cb9fceec81286ca3e989bd979b0cb284 00000000000000000000000000000000 92beedab1895a94faa69b632e5cc47ce
  6 b26aeb1874e47ca8358ff22378f09144 00000000000000000000000000000000 459264f4798f6a78bacb89c15ed3d601
  7 58c8e00b2631686d54eab84b91f0aca1 00000000000000000000000000000000 08a4e2efec8a8e3312ca7460b9040bbf
  8 00000000000000000000000000000000 10a58869d74be5a374cf867cfb473859 6d251e6944b051e04eaa6fb4dbf78465
  9 00000000000000000000000000000000 caea65cdbb75e9169ecd22ebe6e54675 6e29201190152df4ee058139def610bb
 10 00000000000000000000000000000000 a2e2fa9baf7d20822ca9f0542f764a41 c3b44b95d9d2f25670eee9a0de099fa3
 11 00000000000000000000000000000000 b6364ac4e1de1e285eaf144a2415f7a0 5d9b05578fc944b3cf1ccf0e746cd581
 12 00000000000000000000000000000000 64cf9c7abc50b888af65f49d521944b2 f7efc89d5dba578104016ce5ad659c05
 13 00000000000000000000000000000000 47d6742eefcc0465dc96355e851b64d9 0306194f666d183624aa230a8b264ae7
 14 00000000000000000000000000000000 3eb39790678c56bee34bbcdeccf6cdb5 858075d536d79ccee571f7d7204b1f67
 15 00000000000000000000000000000000 64110a924f0743d500ccadae72c13427 35870c6a57e9e92314bcb8087cde72ce
 16 00000000000000000000000000000000 18d8126516f8a12ab1a36d9f04d68e51 6c68e9be5ec41e22c825b7c7affb4363
 17 00000000000000000000000000000000 f530357968578480b398a3c251cd1093 f5df39990fc688f1b07224cc03e86cea
 18 00000000000000000000000000000000 da84367f325d42d601b4326964802e8e bba071bcb470f8f6586e5d3add18bc66
 19 00000000000000000000000000000000 e37b1c6aa2846f6fdb413f238b089f23 43c9f7e62f5d288bb27aa40ef8fe1ea8
 20 00000000000000000000000000000000 6c002b682483e0cabcc731c253be5674 3580d19cff44f1014a7c966a69059de5
 21 00000000000000000000000000000000 143ae8ed6555aba96110ab58893a8ae1 806da864dd29d48deafbe764f8202aef
 22 00000000000000000000000000000000 b69418a85332240dc82492353956ae0c a303d940ded8f0baff6f75414cac5243
 23 00000000000000000000000000000000 71b5c08a1993e1362e4d0ce9b22b78d5 c2dabd117f8a3ecabfbb11d12194d9d0
 24 00000000000000000000000000000000 e234cdca2606b81f29408d5f6da21206 fff60a4740086b3b9c56195b98d91a7b
 25 00000000000000000000000000000000 13237c49074a3da078dc1d828bb78c6f 8146a08e2357f0caa30ca8c94d1a0544
 26 00000000000000000000000000000000 3071a2a48fe6cbd04f1a129098e308f8 4b98e06d356deb07ebb824e5713f7be3
 27 00000000000000000000000000000000 90f42ec0f68385f2ffc5dfc03a654dce 7a20a53d460fc9ce0423a7a0764c6cf2
 28 00000000000000000000000000000000 febd9a24d8b65c1c787d50a4ed3619a9 f4a70d8af877f9b02b4c40df57d45b17
PASSED.
