aes/basic/key_schedule_tb.log
VCD info: dumpfile key_schedule_tb.vcd opened for output.
VCD warning: $dumpvars: Package ($unit) is not dumpable with VCD.
 0 xxxxxxxx xxxxxxxx xxxxxxxx xxxxxxxx
 0 00000000 00000000 00000000 00000000
 1 2b7e1516 28aed2a6 abf71588 09cf4f3c
 2 a0fafe17 88542cb1 23a33939 2a6c7605
 3 f2c295f2 7a96b943 5935807a 7359f67f
 4 3d80477d 4716fe3e 1e237e44 6d7a883b
 5 ef44a541 a8525b7f b671253b db0bad00
 6 d4d1c6f8 7c839d87 caf2b8bc 11f915bc
 7 6d88a37a 110b3efd dbf98641 ca0093fd
 8 4e54f70e 5f5fc9f3 84a64fb2 4ea6dc4f
 9 ead27321 b58dbad2 312bf560 7f8d292f
10 ac7766f3 19fadc21 28d12941 575c006e
11 d014f9a8 c9ee2589 e13f0cc8 b6630ca6
12 47eadde6 8e04f86f 6f3bf4a7 d958f801
13 f5aba1d3 7baf59bc 1494ad1b cdcc551a
14 1557036e 6ef85ad2 7a6cf7c9 b7a0a2d3
15 b86d65c7 d6953f15 acf9c8dc 1b596a0f
 0 e96f1368 3ffa2c7d 9303e4a1 885a8eae
 1 2b7e1516 28aed2a6 abf71588 09cf4f3c
 2 a0fafe17 88542cb1 23a33939 2a6c7605
 3 f2c295f2 7a96b943 5935807a 7359f67f
 4 3d80477d 4716fe3e 1e237e44 6d7a883b
